{
  "Version": "3.3.0", 
  "Began": "Sat Oct 15 12:12:37 2022", 
  "Command line": "ior -f /etc/ior_script", 
  "Machine": "Linux node1", 
  "tests": [
    {
    "TestID": 0, 
    "StartTime": "Sat Oct 15 12:12:37 2022"    , "Path": "/data","Capacity": "31.0 GiB", "Used Capacity": "8.1%","Inodes": "2.0 Mi", "Used Inodes" : "6.6%"
, 
    "Parameters": {
      "testID": 0, 
      "refnum": 0, 
      "api": "POSIX", 
      "platform": "node(Linux)", 
      "testFileName": "testFile", 
      "hintsFileName": "hintsFile", 
      "deadlineForStonewall": 0, 
      "stoneWallingWearOut": 0, 
      "maxTimeDuration": 60, 
      "outlierThreshold": 0, 
      "options": "(null)", 
      "dryRun": 0, 
      "nodes": 6, 
      "memoryPerTask": 0, 
      "memoryPerNode": 0, 
      "tasksPerNode": 5, 
      "repetitions": 10, 
      "multiFile": 0, 
      "interTestDelay": 5, 
      "fsync": 0, 
      "fsyncperwrite": 0, 
      "useExistingTestFile": 0, 
      "showHints": 0, 
      "uniqueDir": 0, 
      "individualDataSets": 0, 
      "singleXferAttempt": 0, 
      "readFile": 1, 
      "writeFile": 1, 
      "filePerProc": 0, 
      "reorderTasks": 0, 
      "reorderTasksRandom": 0, 
      "reorderTasksRandomSeed": 0, 
      "randomOffset": 0, 
      "checkWrite": 0, 
      "checkRead": 0, 
      "preallocate": 0, 
      "useFileView": 0, 
      "setAlignment": 1, 
      "storeFileOffset": 0, 
      "useSharedFilePointer": 0, 
      "useStridedDatatype": 0, 
      "keepFile": 1, 
      "keepFileWithError": 0, 
      "quitOnError": 0, 
      "verbose": 0, 
      "data packet type": "g", 
      "setTimeStampSignature/incompressibleSeed": 0, 
      "collective": 0, 
      "segmentCount": 4, 
      "transferSize": 4194304, 
      "blockSize": 134217728
    }
, 
    "Options": {
      "api": "POSIX", 
      "apiVersion": "", 
      "test filename": "testFile", 
      "access": "single-shared-file", 
      "type": "independent", 
      "segments": 4, 
      "ordering in a file": "sequential", 
      "ordering inter file": "no tasks offsets", 
      "nodes": 6, 
      "tasks": 28, 
      "clients per node": 5, 
      "repetitions": 10, 
      "xfersize": "4 MiB", 
      "blocksize": "128 MiB", 
      "aggregate filesize": "14 GiB"
    }
, 
    "Results": [
      [             {
        "access": "write", 
        "bwMiB": 366.5031, 
        "blockKiB": 131072.0000, 
        "xferKiB": 4096.0000, 
        "iops": 3162.1417, 
        "latency": 0.0327, 
        "openTime": 0.0015, 
        "wrRdTime": 1.1334, 
        "closeTime": 38.3085, 
        "totalTime": 39.1156
      }
, 
            {
        "access": "read", 
        "bwMiB": 1105.0318, 
        "blockKiB": 131072.0000, 
        "xferKiB": 4096.0000, 
        "iops": 276.2716, 
        "latency": 0.3991, 
        "openTime": 0.1046, 
        "wrRdTime": 12.9727, 
        "closeTime": 2.1330, 
        "totalTime": 12.9734
      }
]
, 
    [         {
      "access": "write", 
      "bwMiB": 347.7430, 
      "blockKiB": 131072.0000, 
      "xferKiB": 4096.0000, 
      "iops": 2680.4427, 
      "latency": 0.0359, 
      "openTime": 0.1089, 
      "wrRdTime": 1.3371, 
      "closeTime": 40.4297, 
      "totalTime": 41.2258
    }
, 
        {
      "access": "read", 
      "bwMiB": 1328.3159, 
      "blockKiB": 131072.0000, 
      "xferKiB": 4096.0000, 
      "iops": 332.1054, 
      "latency": 0.3339, 
      "openTime": 0.1085, 
      "wrRdTime": 10.7918, 
      "closeTime": 10.7238, 
      "totalTime": 10.7926
    }
]
, 
  [     {
    "access": "write", 
    "bwMiB": 350.9005, 
    "blockKiB": 131072.0000, 
    "xferKiB": 4096.0000, 
    "iops": 2521.1923, 
    "latency": 0.0380, 
    "openTime": 0.1103, 
    "wrRdTime": 1.4215, 
    "closeTime": 39.9293, 
    "totalTime": 40.8549
  }
, 
    {
    "access": "read", 
    "bwMiB": 1104.6264, 
    "blockKiB": 131072.0000, 
    "xferKiB": 4096.0000, 
    "iops": 276.1676, 
    "latency": 0.2758, 
    "openTime": 0.0012, 
    "wrRdTime": 12.9776, 
    "closeTime": 5.5976, 
    "totalTime": 12.9781
  }
]
, 
[ {
  "access": "write", 
  "bwMiB": 346.8820, 
  "blockKiB": 131072.0000, 
  "xferKiB": 4096.0000, 
  "iops": 2905.3144, 
  "latency": 0.0355, 
  "openTime": 0.1117, 
  "wrRdTime": 1.2336, 
  "closeTime": 40.4062, 
  "totalTime": 41.3282
}
, 
{
  "access": "read", 
  "bwMiB": 1340.1252, 
  "blockKiB": 131072.0000, 
  "xferKiB": 4096.0000, 
  "iops": 335.0530, 
  "latency": 0.2904, 
  "openTime": 0.1057, 
  "wrRdTime": 10.6968, 
  "closeTime": 10.6259, 
  "totalTime": 10.6975
}
]
, 
[ {
"access": "write", 
"bwMiB": 350.3292, 
"blockKiB": 131072.0000, 
"xferKiB": 4096.0000, 
"iops": 3130.3790, 
"latency": 0.0355, 
"openTime": 0.1081, 
"wrRdTime": 1.1449, 
"closeTime": 40.1411, 
"totalTime": 40.9215
}
, 
{
"access": "read", 
"bwMiB": 1104.9440, 
"blockKiB": 131072.0000, 
"xferKiB": 4096.0000, 
"iops": 276.2498, 
"latency": 0.3614, 
"openTime": 0.1054, 
"wrRdTime": 12.9738, 
"closeTime": 5.1936, 
"totalTime": 12.9744
}
]
, 
[ {
"access": "write", 
"bwMiB": 353.3259, 
"blockKiB": 131072.0000, 
"xferKiB": 4096.0000, 
"iops": 2549.8510, 
"latency": 0.0312, 
"openTime": 0.1049, 
"wrRdTime": 1.4056, 
"closeTime": 39.6075, 
"totalTime": 40.5744
}
, 
{
"access": "read", 
"bwMiB": 1101.6616, 
"blockKiB": 131072.0000, 
"xferKiB": 4096.0000, 
"iops": 275.4318, 
"latency": 0.4031, 
"openTime": 0.1074, 
"wrRdTime": 13.0123, 
"closeTime": 3.6713, 
"totalTime": 13.0131
}
]
, 
[ {
"access": "write", 
"bwMiB": 350.3592, 
"blockKiB": 131072.0000, 
"xferKiB": 4096.0000, 
"iops": 2534.9979, 
"latency": 0.0402, 
"openTime": 0.1073, 
"wrRdTime": 1.4138, 
"closeTime": 40.1449, 
"totalTime": 40.9180
}
, 
{
"access": "read", 
"bwMiB": 1102.8967, 
"blockKiB": 131072.0000, 
"xferKiB": 4096.0000, 
"iops": 275.7385, 
"latency": 0.4059, 
"openTime": 0.1084, 
"wrRdTime": 12.9978, 
"closeTime": 5.6034, 
"totalTime": 12.9985
}
]
, 
[ {
"access": "write", 
"bwMiB": 352.4520, 
"blockKiB": 131072.0000, 
"xferKiB": 4096.0000, 
"iops": 2619.1787, 
"latency": 0.0418, 
"openTime": 0.1096, 
"wrRdTime": 1.3684, 
"closeTime": 39.8939, 
"totalTime": 40.6750
}
, 
{
"access": "read", 
"bwMiB": 1106.2170, 
"blockKiB": 131072.0000, 
"xferKiB": 4096.0000, 
"iops": 276.5671, 
"latency": 0.3901, 
"openTime": 0.1057, 
"wrRdTime": 12.9589, 
"closeTime": 3.2739, 
"totalTime": 12.9595
}
]
, 
[ {
"access": "write", 
"bwMiB": 341.2360, 
"blockKiB": 131072.0000, 
"xferKiB": 4096.0000, 
"iops": 2879.3801, 
"latency": 0.0332, 
"openTime": 0.1066, 
"wrRdTime": 1.2447, 
"closeTime": 41.0123, 
"totalTime": 42.0120
}
, 
{
"access": "read", 
"bwMiB": 1101.4149, 
"blockKiB": 131072.0000, 
"xferKiB": 4096.0000, 
"iops": 275.3734, 
"latency": 0.4023, 
"openTime": 0.1088, 
"wrRdTime": 13.0151, 
"closeTime": 3.6763, 
"totalTime": 13.0160
}
]
, 
[ {
"access": "write", 
"bwMiB": 351.8342, 
"blockKiB": 131072.0000, 
"xferKiB": 4096.0000, 
"iops": 2546.6030, 
"latency": 0.0407, 
"openTime": 0.1112, 
"wrRdTime": 1.4074, 
"closeTime": 39.7306, 
"totalTime": 40.7465
}
, 
{
"access": "read", 
"bwMiB": 1101.7523, 
"blockKiB": 131072.0000, 
"xferKiB": 4096.0000, 
"iops": 275.4593, 
"latency": 0.4020, 
"openTime": 0.1075, 
"wrRdTime": 13.0110, 
"closeTime": 1.8577, 
"totalTime": 13.0120
}
]
]
, 
"max": {
"writeMiB": 366.5031, 
"writeMB": 384.3063, 
"readMiB": 1340.1252, 
"readMB": 1405.2232
}

}
]
, 
"summary": [
{
"operation": "write", 
"API": "POSIX", 
"TestID": 0, 
"ReferenceNumber": 0, 
"segmentCount": 4, 
"blockSize": 134217728, 
"transferSize": 4194304, 
"numTasks": 28, 
"tasksPerNode": 5, 
"repetitions": 10, 
"filePerProc": 0, 
"reorderTasks": 0, 
"taskPerNodeOffset": 1, 
"reorderTasksRandom": 0, 
"reorderTasksRandomSeed": 0, 
"segmentCount": 4, 
"blockSize": 134217728, 
"transferSize": 4194304, 
"bwMaxMIB": 366.5031, 
"bwMinMIB": 341.2360, 
"bwMeanMIB": 351.1565, 
"bwStdMIB": 6.0999, 
"OPsMax": 91.6258, 
"OPsMin": 85.3090, 
"OPsMean": 87.7891, 
"OPsSD": 1.5250, 
"MeanTime": 40.8372, 
"xsizeMiB": 14336.0000
}
, 
{
"operation": "read", 
"API": "POSIX", 
"TestID": 0, 
"ReferenceNumber": 0, 
"segmentCount": 4, 
"blockSize": 134217728, 
"transferSize": 4194304, 
"numTasks": 28, 
"tasksPerNode": 5, 
"repetitions": 10, 
"filePerProc": 0, 
"reorderTasks": 0, 
"taskPerNodeOffset": 1, 
"reorderTasksRandom": 0, 
"reorderTasksRandomSeed": 0, 
"segmentCount": 4, 
"blockSize": 134217728, 
"transferSize": 4194304, 
"bwMaxMIB": 1340.1252, 
"bwMinMIB": 1101.4149, 
"bwMeanMIB": 1149.6986, 
"bwStdMIB": 92.3119, 
"OPsMax": 335.0313, 
"OPsMin": 275.3537, 
"OPsMean": 287.4246, 
"OPsSD": 23.0780, 
"MeanTime": 12.5415, 
"xsizeMiB": 14336.0000
}
]
, 
"Finished": "Sat Oct 15 12:23:33 2022"
}
